//obstacle data
//cl numbers overwritten by field

//cl_inner = 0.03;
cl_inner = 1.0;
//cl_outer = 0.10;
cl_outer = 1.0;
a = 0.5;
b = 0.5;

//channel bounding box
length = 5.0;
x1 = -1.5;
y1 = -1.5;

//boundary markers
Inlet1 = 11;
Inlet2 = 12;
Outlet1 = 21;
Outlet2 = 22;
Noslip1 = 31;
Noslip2 = 32;
Design1 = 41;
Design2 = 42;
Symm1 = 71;
Symm2 = 72;

Point(1) = {0.0, 0.0, 0.0, cl_inner};
Point(2) = {a, 0.0, 0.0, cl_inner};
Point(3) = {0.0, b, 0.0, cl_inner};
Point(4) = {-a, 0.0, 0.0, cl_inner};
Point(5) = {0.0, -b, 0.0, cl_inner};
Ellipse(1) = {2, 1, 1, 3};
Ellipse(2) = {3, 1, 1, 4};
Ellipse(3) = {4, 1, 1, 5};
Ellipse(4) = {5, 1, 1, 2};

//bounding box
Point(6) = {x1, y1, 0.0, cl_outer};
Point(7) = {x1, -y1, 0.0, cl_outer};
Point(8) = {x1+length, y1, 0.0, cl_outer};
Point(10) = {x1+length, -y1, 0.0, cl_outer};
//extra points for local refinement
Point(11) = {x1, 0.0, 0.0, cl_outer};
Point(12) = {x1+length, 0.0, 0.0, cl_outer};
Line(5) = {7, 10};
Line(6) = {10, 12};
Line(7) = {12, 8};
Line(8) = {8, 6};
Line(9) = {6, 11};
Line(10) = {11, 7};
//Trennlinie
Line(12) = {11, 4};
Line(13) = {2, 12};
//Define Surfaces
Line Loop(1) = {10, 5, 6, -13, 1, 2, -12};
Plane Surface(1) = {1};
Line Loop(2) = {9, 12, 3, 4, 13, 7, 8};
Plane Surface(2) = {2};

Field[1] = Attractor;
Field[1].NNodesByEdge = 100;
Field[1].EdgesList = {1,2,3,4};
Field[2] = Threshold;
Field[2].IField = 1;
Field[2].LcMin = 0.025;
Field[2].LcMax = 0.1;
Field[2].DistMin = 0.15;
Field[2].DistMax = 0.5;

Physical Line(Inlet1) = {10};
Physical Line(Inlet2) = {9};
Physical Line(Outlet1) = {6};
Physical Line(Outlet2) = {7};
Physical Line(Design1) = {1,2};
Physical Line(Design2) = {3,4};
Physical Line(Noslip1) = {5};
Physical Line(Noslip2) = {8};
Physical Line(Symm1) = {12};
Physical Line(Symm2) = {13};
Physical Surface(0) = {1};
Physical Surface(1) = {2};

Background Field = 2;
